…
    ## Warning: Column `voc` joining factor and character vector, coercing into
    ## character vector

``` r
clustered_long_vocs %>% 
  spread(key = voc_clust, value = voc_value)
```

    ## # A tibble: 335 x 20
    ##    sampid famid ssex  clust_01 clust_02 clust_03 clust_04 clust_05 clust_06
    ##    <chr>  <int> <chr>    <dbl>    <dbl>    <dbl>    <dbl>    <dbl>    <dbl>
    ##  1 P_1_2~     1 m      6.84e-8  0.       5.96e-8  1.13e-8 0.       0.      
    ##  2 P_1_2~     1 f      1.49e-7  4.73e-8  0.       4.37e-8 8.54e-11 3.96e-10
    ##  3 P_1_2~     1 f      1.46e-7  0.       0.       3.33e-6 0.       0.      
    ##  4 P_1_2~     1 f      1.82e-8  0.       0.       7.97e-7 3.77e-10 3.36e-10
    ##  5 P_1_5~     2 f      3.99e-6  5.13e-7  1.45e-6  1.95e-6 3.65e- 8 2.35e- 8
    ##  6 P_1_5~     2 m      1.06e-7  0.       0.       1.18e-8 0.       0.      
    ##  7 P_1_5~     2 f      1.01e-5  2.02e-6  1.50e-7  4.46e-7 1.61e- 8 0.      
    ##  8 P_1_5~     2 f      9.59e-7  0.       9.51e-8  3.51e-6 1.69e- 9 0.      
    ##  9 P_1_5~     2 f      8.73e-6  1.24e-6  7.39e-7  5.08e-6 9.58e- 9 0.      
    ## 10 P_1_5~     2 m      5.36e-8  2.51e-6  3.36e-8  4.04e-6 2.89e-10 0.      
    ## # ... with 325 more rows, and 11 more variables: clust_07 <dbl>,
    ## #   clust_08 <dbl>, clust_09 <dbl>, clust_10 <dbl>, clust_11 <dbl>,
    ## #   clust_12 <dbl>, clust_13 <dbl>, clust_14 <dbl>, clust_15 <dbl>,
    ## #   clust_16 <dbl>, clust_17 <dbl>
…
